<svg width="256px" height="256px" viewBox="0 0 256 256" id="Flat" xmlns="http://www.w3.org/2000/svg">
  <path d="M216,48V88a8,8,0,0,1-16,0V56H168a8,8,0,0,1,0-16h40A8.00008,8.00008,0,0,1,216,48ZM88,200H56V168a8,8,0,0,0-16,0v40a8.00039,8.00039,0,0,0,8,8H88a8,8,0,0,0,0-16Zm120-40a8.00039,8.00039,0,0,0-8,8v32H168a8,8,0,0,0,0,16h40a8.00039,8.00039,0,0,0,8-8V168A8.00039,8.00039,0,0,0,208,160ZM88,40H48a8.00008,8.00008,0,0,0-8,8V88a8,8,0,0,0,16,0V56H88a8,8,0,0,0,0-16Z"/>
</svg>
