<?xml version="1.0" encoding="utf-8"?>
<!DOCTYPE svg PUBLIC "-//W3C//DTD SVG 1.1//EN" "http://www.w3.org/Graphics/SVG/1.1/DTD/svg11.dtd">
<svg width="76px" height="76px" viewBox="0 0 76 76" xmlns="http://www.w3.org/2000/svg" xmlns:xlink="http://www.w3.org/1999/xlink" version="1.1" baseProfile="full" enable-background="new 0 0 76.00 76.00" xml:space="preserve">
	<path fill="#000000" fill-opacity="1" stroke-width="0.2" stroke-linejoin="round" stroke="#FFFFFF" stroke-opacity="1" d="M 19,19L 29.2917,19L 19,29.2917L 19,19 Z M 46.7083,19L 57,19L 57,29.2917L 46.7083,19 Z M 46.7083,57L 57,46.7083L 57,57L 46.7083,57 Z M 19,57L 19,46.7083L 29.2917,57L 19,57 Z "/>
</svg>
